^F:\WORK\C++\LAB1\WINDOWSPROJECT1\WINDOWSPROJECT1\DEBUG\STDAFX.OBJ|F:\WORK\C++\LAB1\WINDOWSPROJECT1\WINDOWSPROJECT1\DEBUG\WINDOWSPROJECT1.OBJ|F:\WORK\C++\LAB1\WINDOWSPROJECT1\WINDOWSPROJECT1\DEBUG\WINDOWSPROJECT1.RES
C:\WINDOWS\GLOBALIZATION\SORTING\SORTDEFAULT.NLS
C:\PROGRAM FILES (X86)\WINDOWS KITS\10\LIB\10.0.15063.0\UM\X86\KERNEL32.LIB
C:\PROGRAM FILES (X86)\WINDOWS KITS\10\LIB\10.0.15063.0\UM\X86\USER32.LIB
C:\PROGRAM FILES (X86)\WINDOWS KITS\10\LIB\10.0.15063.0\UM\X86\GDI32.LIB
C:\PROGRAM FILES (X86)\WINDOWS KITS\10\LIB\10.0.15063.0\UM\X86\WINSPOOL.LIB
C:\PROGRAM FILES (X86)\WINDOWS KITS\10\LIB\10.0.15063.0\UM\X86\COMDLG32.LIB
C:\PROGRAM FILES (X86)\WINDOWS KITS\10\LIB\10.0.15063.0\UM\X86\ADVAPI32.LIB
C:\PROGRAM FILES (X86)\WINDOWS KITS\10\LIB\10.0.15063.0\UM\X86\SHELL32.LIB
C:\PROGRAM FILES (X86)\WINDOWS KITS\10\LIB\10.0.15063.0\UM\X86\OLE32.LIB
C:\PROGRAM FILES (X86)\WINDOWS KITS\10\LIB\10.0.15063.0\UM\X86\OLEAUT32.LIB
C:\PROGRAM FILES (X86)\WINDOWS KITS\10\LIB\10.0.15063.0\UM\X86\UUID.LIB
C:\PROGRAM FILES (X86)\WINDOWS KITS\10\LIB\10.0.15063.0\UM\X86\ODBC32.LIB
C:\PROGRAM FILES (X86)\WINDOWS KITS\10\LIB\10.0.15063.0\UM\X86\ODBCCP32.LIB
F:\WORK\C++\LAB1\WINDOWSPROJECT1\WINDOWSPROJECT1\DEBUG\WINDOWSPROJECT1.RES
F:\WORK\C++\LAB1\WINDOWSPROJECT1\WINDOWSPROJECT1\DEBUG\STDAFX.OBJ
F:\WORK\C++\LAB1\WINDOWSPROJECT1\WINDOWSPROJECT1\DEBUG\WINDOWSPROJECT1.OBJ
C:\WINDOWS\SYSTEM32\TZRES.DLL
D:\PROGRAMS\VISUALSTUDIO17\VC\TOOLS\MSVC\14.11.25503\LIB\X86\MSVCRTD.LIB
D:\PROGRAMS\VISUALSTUDIO17\VC\TOOLS\MSVC\14.11.25503\LIB\X86\OLDNAMES.LIB
C:\PROGRAM FILES (X86)\WINDOWS KITS\10\LIB\10.0.15063.0\UM\X86\MSIMG32.LIB
D:\PROGRAMS\VISUALSTUDIO17\VC\TOOLS\MSVC\14.11.25503\LIB\X86\VCRUNTIMED.LIB
C:\PROGRAM FILES (X86)\WINDOWS KITS\10\LIB\10.0.15063.0\UCRT\X86\UCRTD.LIB
